<?xml version="1.0" encoding="utf-8"?>

<svg xmlns="http://www.w3.org/2000/svg" viewBox="0 0 976 1000">
	<g>
		<path d="M647.4,0c10.7,3.5,22,4.3,32.6,8.2C734.2,28.3,766.1,68,779.5,123c13.1,53.8,0.6,103.1-29.7,148.5
			c-25.9,38.7-59.3,70.5-94.2,100.8c-44.5,38.7-89.5,77-134.3,115.3c-11.9,10.2-25,10.4-36.5,0.4c-57.9-50-117.8-97.6-172.9-150.8
			c-30-29-56.6-60.5-74.6-98.7c-33.5-71.1-14.1-158.8,46.6-207.5c20-16.1,43.3-25.3,68.7-29.1c1.5-0.2,3.6,0.6,4.3-1.7
			c11.5,0,22.9,0,34.4,0c23.6,1.5,45,9.3,64.3,22.9c18.9,13.3,34.7,29.4,46.7,49.4c8.3-10.6,16.7-22.1,27-32.1
			c18.5-17.9,39.7-30.7,64.5-37.4C600,1,606.7,1.9,613,0C624.5,0,635.9,0,647.4,0z"/>
		<path d="M361.3,1000c-30.3-0.9-91.8-12.7-121.4-21.8c-5.1-1.6-7-3.1-7-8.7c0.2-113.3,0.2-226.5,0.1-339.8c0-4.7,1.4-7.3,5.4-9.9
			c72.3-47.5,168.9-43.2,235.5,11.5c20.2,16.6,42.1,25.1,68.4,24.4c30.9-0.9,61.9-0.6,92.8-0.1c24.6,0.4,42.9,12.3,52.6,34.8
			c9.4,21.8,5.7,42.6-10,60.6c-12.1,13.8-27.9,19.3-46.1,19.3c-56.5-0.1-112.9-0.1-169.4,0c-17.9,0-30,11.1-30.6,27.3
			c-0.7,17.3,11.5,29.9,29.8,30c31.3,0.2,62.5,0.1,93.8,0.1c40.2,0,80.4-0.2,120.6,0.1c31.3,0.3,56.5-10.9,77-35.1
			c40.6-48,82.2-95,123.3-142.6c0.2-0.2,0.3-0.4,0.5-0.6c21.2-24.2,59.9-20.6,76.9,6.8l14.9,24.1c9.7,15.6,9.8,35.4,0,50.9
			c-2,3.1-4.2,6.2-6.5,9.3c-32.8,43.6-65.4,87.3-98.2,130.8c-15,19.8-28.9,40.5-45.3,59.2c-35,39.9-77.9,65.2-131.9,68.6"/>
		<path d="M1.3,618.9c3.7-12.2,12.2-20.4,24.4-20.6c24.8-0.4,49.8-2.2,74.5,0.9c43.2,5.4,74.6,39.4,75.1,83.8
			c0.9,77.2,0.9,154.4,0,231.5c-0.5,44.1-26.1,77.2-69.6,84.5c-0.9,0.1-6,0.5-6.8,0.9c-26.2,0-52.3,0-78.5,0
			C4.8,994.7,1,990.1,0.5,975.6c0-115.4,0-230.9,0-346.3C0.5,625.8-0.3,622.2,1.3,618.9z"/>
	</g>
</svg>
