<?xml version="1.0" encoding="utf-8"?>

<svg
	version="1.1"
	xmlns="http://www.w3.org/2000/svg"
	viewBox="0 0 1000 1000"
	xml:space="preserve">
<g>
	<path
		d="M335.5,633.5c0-78,0.1-156-0.1-233.9c0-6.1,1.3-9,7.5-11.5c27.2-10.7,45.9-30.4,58.2-56.7c27.7-59.3,55.4-118.7,83.6-177.8
		c21-43.9,74.6-56.3,111.2-25.7c21,17.5,29.7,40.5,24.9,67.5c-7.2,40.8-15.4,81.3-23,122c-8,43.1,20.4,78.1,64.3,78.7
		c31.2,0.4,62.4,0.3,93.6,0c23.8-0.2,45.2,6.2,62.9,22.5c20.1,18.5,29,41.7,26.1,68.9c-11.2,104.5-22.4,209-33.9,313.5
		c-5,45.9-39.6,76.6-86.2,76.6c-126.7,0.1-253.5,0-380.2,0.2c-7.6,0-9.2-2.1-9.1-9.3C335.6,790.2,335.5,711.9,335.5,633.5z"
	/>
	<path
		d="M271.6,637.3c0,77-0.1,153.9,0.2,230.9c0,7.9-2.2,9.8-9.8,9.6c-17.6-0.6-35.2,0-52.7-0.2c-38-0.4-65-27.5-65.1-65.4
		c-0.1-116.8-0.1-233.5,0-350.3c0-38,26.8-65,64.9-65.6c17.9-0.3,35.8,0.5,53.7-0.3c8.1-0.3,8.9,2.7,8.9,9.5
		C271.6,482.7,271.6,560,271.6,637.3z"
	/>
</g>
</svg>
