<?xml version="1.0" encoding="utf-8"?>

<svg
	version="1.1"
	xmlns="http://www.w3.org/2000/svg"
	viewBox="0 0 955 1000"
	xml:space="preserve"
>
	<path d="M941.7,220C894.3,61.8,728.6-30.7,569,9.3c-195.9,49-296.8,271.4-196.1,452.5c7.3,13,4.9,19.2-4.5,28.5
		C255.3,602.8,142.7,715.6,29.9,828.5c-5.4,5.4-10.7,11.1-15.8,16.8c-27.2,30.5-11.2,90.5,20.8,102.4c33.3,12.3,59.6,9.5,87.7-18.7
		c7.5-7.5,11.5-8,19-0.1c18.5,19.6,37.6,38.7,57.2,57.1c19.1,18,44.6,18.4,62.3,2.5c17.8-16.1,19.6-41.3,4.4-62.3
		c-13.8-19.1-13.5-21.2,5.2-39.6c15.8-15.6,17.3-15.6,35.5-2.2c25.8,19,59,11.8,70.2-16.2c8.2-20.4,2.7-38.6-12.8-53.9
		c-21.1-20.8-42.1-41.7-63.4-62.7c57.1-57,113.3-112.8,168.9-169.2c7.7-7.8,12.7-6.3,20.5-1.9c71.1,40.7,147.5,51.6,226.5,32.7
		C893.2,571.1,993.3,392.2,941.7,220z M645.8,485.3c-97.2,0.5-177.6-77.1-176.9-173.5c0.7-100,77.5-175,174.5-176.3
		c96.9-1.3,175,77.5,175.4,174.9C819.2,407.5,742.7,484.9,645.8,485.3z"/>
</svg>
